…
## Load data

``` r
df <- read_excel("president.xlsx")
#> New names:
#> * `` -> ...1
df
#> # A tibble: 4,076 × 67
#>    ...1  index day                 house house_new    GG    BH  Soso Great  Good
#>    <chr> <chr> <dttm>              <chr> <chr>     <dbl> <dbl> <dbl> <dbl> <dbl>
#>  1 1     3765  2017-05-15 00:00:00 리얼… 리얼미터   NA    NA    NA    53.4  28.9
#>  2 2     3765  2017-05-16 00:00:00 리얼… 리얼미터   NA    NA    NA    53.4  28.9
#>  3 3     3765  2017-05-17 00:00:00 리얼… 리얼미터   NA    NA    NA    53.4  28.9
#>  4 4     3765  2017-05-18 00:00:00 리얼… 리얼미터   NA    NA    NA    53.4  28.9
#>  5 5     3765  2017-05-19 00:00:00 리얼… 리얼미터   NA    NA    NA    53.4  28.9
#>  6 6     3768  2017-05-20 00:00:00 리서… 리서치뷰   NA    NA    NA    67.4  19.6
#>  7 7     3768  2017-05-21 00:00:00 리서… 리서치뷰   NA    NA    NA    67.4  19.6
#>  8 8     3768  2017-05-22 00:00:00 리서… 리서치뷰   NA    NA    NA    67.4  19.6
#>  9 9     3770  2017-05-20 00:00:00 조원… 조원씨앤…  81.3   8.8   7.5  NA    NA  
#> 10 10    3770  2017-05-21 00:00:00 조원… 조원씨앤…  81.3   8.8   7.5  NA    NA  
#> # … with 4,066 more rows, and 57 more variables: Bad <dbl>, Horrible <dbl>,
#> #   DK <dbl>, total <dbl>, election <chr>, region1 <chr>, election_name <chr>,
#> #   client <chr>, house.detail <chr>, region2 <chr>, date <dttm>, hours <chr>,
#> #   subject <chr>, weight_method <chr>, weight_application <chr>,
#> #   a_weight_method <chr>, a_weight_application <chr>, intertval <chr>,
#> #   media_type <chr>, media <chr>, release_date <chr>, rejection <dbl>,
#> #   response <dbl>, reach <dbl>, whole_reach_rate <lgl>, …
```
…
